{
	"info": {
		"_postman_id": "d4cef60f-eb85-4b5f-8745-4669fe22d83d",
		"name": "Medtro API v0.0.2 Documentation",
		"schema": "https://schema.getpostman.com/json/collection/v2.1.0/collection.json"
	},
	"item": [
		{
			"name": "api",
			"item": [
				{
					"name": "doctors",
					"item": [
						{
							"name": "Returns information on all doctors",
							"event": [
								{
									"listen": "test",
									"script": {
										"id": "fd90b7a5-7660-41dd-819d-b894e913079e",
										"exec": [
											"pm.test(\"Status code is 200\", function () {\r",
											"    pm.response.to.have.status(500);\r",
											"});\r",
											"\r",
											"pm.test(\"Response time is less than 200ms\", function () {\r",
											"    pm.expect(pm.response.responseTime).to.be.below(500);\r",
											"});"
										],
										"type": "text/javascript"
									}
								}
							],
							"request": {
								"method": "GET",
								"header": [],
								"url": {
									"raw": "{{baseUrl}}/api/doctors?page=<integer>",
									"host": [
										"{{baseUrl}}"
									],
									"path": [
										"api",
										"doctors"
									],
									"query": [
										{
											"key": "page",
											"value": "<integer>",
											"description": "(Required) The page of data to be queried"
										}
									]
								}
							},
							"response": [
								{
									"name": "Unexpected error",
									"originalRequest": {
										"method": "GET",
										"header": [],
										"url": {
											"raw": "{{baseUrl}}/api/doctors?page=<integer>",
											"host": [
												"{{baseUrl}}"
											],
											"path": [
												"api",
												"doctors"
											],
											"query": [
												{
													"key": "page",
													"value": "<integer>"
												}
											]
										}
									},
									"status": "Internal Server Error",
									"code": 500,
									"_postman_previewlanguage": "json",
									"header": [
										{
											"key": "Content-Type",
											"value": "application/json"
										}
									],
									"cookie": [],
									"body": "{\n \"code\": -50052068,\n \"message\": \"dolore id o\"\n}"
								},
								{
									"name": "Information on all doctors",
									"originalRequest": {
										"method": "GET",
										"header": [],
										"url": {
											"raw": "{{baseUrl}}/api/doctors?page=<integer>",
											"host": [
												"{{baseUrl}}"
											],
											"path": [
												"api",
												"doctors"
											],
											"query": [
												{
													"key": "page",
													"value": "<integer>"
												}
											]
										}
									},
									"status": "OK",
									"code": 200,
									"_postman_previewlanguage": "json",
									"header": [
										{
											"key": "x-next",
											"value": "tempor Lorem ut",
											"description": "A link to the next page of responses"
										},
										{
											"key": "Content-Type",
											"value": "application/json"
										}
									],
									"cookie": [],
									"body": "{\n \"npi_number\": -99229082,\n \"enumeration_type\": \"pariatur exercitation ipsum\",\n \"full_name\": \"sit minim tempor\",\n \"name\": \"e\",\n \"gender\": \"magna ea in et esse\",\n \"last_updated\": \"magna es\",\n \"address\": \"ut tempor dolore dolore eiusmod\",\n \"city\": \"dolore\",\n \"state\": \"pariatur nostrud\",\n \"zipcode\": true,\n \"phone_number\": \"minim proident velit\",\n \"fax_number\": \"proident non\",\n \"specialities\": \"exercitation deserunt \",\n \"doc_location\": []\n}"
								}
							]
						},
						{
							"name": "Returns information on a single doctor",
							"event": [
								{
									"listen": "test",
									"script": {
										"id": "a33ed50d-8bea-46bf-bed8-4036aa1fd8c9",
										"exec": [
											"pm.test(\"Status code is 200\", function () {\r",
											"    pm.response.to.have.status(400);\r",
											"});\r",
											"\r",
											"pm.test(\"Response time is less than 200ms\", function () {\r",
											"    pm.expect(pm.response.responseTime).to.be.below(500);\r",
											"});"
										],
										"type": "text/javascript"
									}
								}
							],
							"request": {
								"method": "GET",
								"header": [],
								"url": {
									"raw": "{{baseUrl}}/api/doctors/npi_number?npi_number=<integer>",
									"host": [
										"{{baseUrl}}"
									],
									"path": [
										"api",
										"doctors",
										"npi_number"
									],
									"query": [
										{
											"key": "npi_number",
											"value": "<integer>",
											"description": "(Required) "
										}
									]
								}
							},
							"response": [
								{
									"name": "Information on a single doctor",
									"originalRequest": {
										"method": "GET",
										"header": [],
										"url": {
											"raw": "{{baseUrl}}/api/doctors/npi_number?npi_number=<integer>",
											"host": [
												"{{baseUrl}}"
											],
											"path": [
												"api",
												"doctors",
												"npi_number"
											],
											"query": [
												{
													"key": "npi_number",
													"value": "<integer>"
												}
											]
										}
									},
									"status": "OK",
									"code": 200,
									"_postman_previewlanguage": "json",
									"header": [
										{
											"key": "x-next",
											"value": "tempor Lorem ut",
											"description": "A link to the next page of responses"
										},
										{
											"key": "Content-Type",
											"value": "application/json"
										}
									],
									"cookie": [],
									"body": "{\n \"npi_number\": -61336890,\n \"enumeration_type\": \"do elit\",\n \"full_name\": \"magna in conseq\",\n \"name\": \"nostrud aute voluptate\",\n \"gender\": \"mollit voluptate ut veniam nisi\",\n \"last_updated\": \"magna\",\n \"address\": \"ut laborum aliquip\",\n \"city\": \"qui Duis exercitation\",\n \"state\": \"aute ipsum\",\n \"zipcode\": false,\n \"phone_number\": \"commodo\",\n \"fax_number\": \"aute ad Ut\",\n \"specialities\": \"Ut fugi\",\n \"doc_location\": []\n}"
								},
								{
									"name": "Unexpected error",
									"originalRequest": {
										"method": "GET",
										"header": [],
										"url": {
											"raw": "{{baseUrl}}/api/doctors/npi_number?npi_number=<integer>",
											"host": [
												"{{baseUrl}}"
											],
											"path": [
												"api",
												"doctors",
												"npi_number"
											],
											"query": [
												{
													"key": "npi_number",
													"value": "<integer>"
												}
											]
										}
									},
									"status": "Internal Server Error",
									"code": 500,
									"_postman_previewlanguage": "json",
									"header": [
										{
											"key": "Content-Type",
											"value": "application/json"
										}
									],
									"cookie": [],
									"body": "{\n \"code\": -50052068,\n \"message\": \"dolore id o\"\n}"
								}
							]
						}
					],
					"protocolProfileBehavior": {},
					"_postman_isSubFolder": true
				},
				{
					"name": "aux services",
					"item": [
						{
							"name": "Returns information on all auxiliary healthcare services",
							"event": [
								{
									"listen": "test",
									"script": {
										"id": "c47486f0-8cb6-4263-986e-e8e71ca48393",
										"exec": [
											"pm.test(\"Status code is 200\", function () {\r",
											"    pm.response.to.have.status(500);\r",
											"});\r",
											"\r",
											"pm.test(\"Response time is less than 200ms\", function () {\r",
											"    pm.expect(pm.response.responseTime).to.be.below(500);\r",
											"});"
										],
										"type": "text/javascript"
									}
								}
							],
							"request": {
								"method": "GET",
								"header": [],
								"url": {
									"raw": "{{baseUrl}}/api/aux_services?page=<integer>",
									"host": [
										"{{baseUrl}}"
									],
									"path": [
										"api",
										"aux_services"
									],
									"query": [
										{
											"key": "page",
											"value": "<integer>",
											"description": "(Required) The page of data to be queried"
										}
									]
								}
							},
							"response": [
								{
									"name": "Unexpected error",
									"originalRequest": {
										"method": "GET",
										"header": [],
										"url": {
											"raw": "{{baseUrl}}/api/aux_services?page=<integer>",
											"host": [
												"{{baseUrl}}"
											],
											"path": [
												"api",
												"aux_services"
											],
											"query": [
												{
													"key": "page",
													"value": "<integer>"
												}
											]
										}
									},
									"status": "Internal Server Error",
									"code": 500,
									"_postman_previewlanguage": "json",
									"header": [
										{
											"key": "Content-Type",
											"value": "application/json"
										}
									],
									"cookie": [],
									"body": "{\n \"code\": -50052068,\n \"message\": \"dolore id o\"\n}"
								},
								{
									"name": "Information on all auxiliary healthcare services",
									"originalRequest": {
										"method": "GET",
										"header": [],
										"url": {
											"raw": "{{baseUrl}}/api/aux_services?page=<integer>",
											"host": [
												"{{baseUrl}}"
											],
											"path": [
												"api",
												"aux_services"
											],
											"query": [
												{
													"key": "page",
													"value": "<integer>"
												}
											]
										}
									},
									"status": "OK",
									"code": 200,
									"_postman_previewlanguage": "json",
									"header": [
										{
											"key": "x-next",
											"value": "tempor Lorem ut",
											"description": "A link to the next page of responses"
										},
										{
											"key": "Content-Type",
											"value": "application/json"
										}
									],
									"cookie": [],
									"body": "{\n \"id\": -11367870,\n \"company_name\": \"aliquip nisi\",\n \"address\": \"labore ullamco ipsum\",\n \"city\": \"id irure quis deserunt\",\n \"state\": \"id eiu\",\n \"zipcode\": \"nulla adipisicing non\",\n \"phone\": \"sed mollit do\",\n \"product\": \"dolore Excepteur reprehenderit eiusmod magna\",\n \"image\": \"labor\",\n \"aux_location\": []\n}"
								}
							]
						},
						{
							"name": "Returns information on a single auxiliary healthcare services",
							"event": [
								{
									"listen": "test",
									"script": {
										"id": "358c1ffa-23f3-40ab-9daf-e6c43cc248da",
										"exec": [
											"pm.test(\"Status code is 200\", function () {\r",
											"    pm.response.to.have.status(400);\r",
											"});\r",
											"\r",
											"pm.test(\"Response time is less than 200ms\", function () {\r",
											"    pm.expect(pm.response.responseTime).to.be.below(500);\r",
											"});\r",
											"\r",
											""
										],
										"type": "text/javascript"
									}
								}
							],
							"request": {
								"method": "GET",
								"header": [],
								"url": {
									"raw": "{{baseUrl}}/api/aux_services/id_number?id_number=<integer>",
									"host": [
										"{{baseUrl}}"
									],
									"path": [
										"api",
										"aux_services",
										"id_number"
									],
									"query": [
										{
											"key": "id_number",
											"value": "<integer>",
											"description": "(Required) "
										}
									]
								}
							},
							"response": [
								{
									"name": "Information on a single auxiliary healthcare services",
									"originalRequest": {
										"method": "GET",
										"header": [],
										"url": {
											"raw": "{{baseUrl}}/api/aux_services/id_number?id_number=<integer>",
											"host": [
												"{{baseUrl}}"
											],
											"path": [
												"api",
												"aux_services",
												"id_number"
											],
											"query": [
												{
													"key": "id_number",
													"value": "<integer>"
												}
											]
										}
									},
									"status": "OK",
									"code": 200,
									"_postman_previewlanguage": "json",
									"header": [
										{
											"key": "x-next",
											"value": "tempor Lorem ut",
											"description": "A link to the next page of responses"
										},
										{
											"key": "Content-Type",
											"value": "application/json"
										}
									],
									"cookie": [],
									"body": "{\n \"id\": 83127039,\n \"company_name\": \"veniam aliquip\",\n \"address\": \"laboris sunt dolor laborum incididunt\",\n \"city\": \"a\",\n \"state\": \"dolor\",\n \"zipcode\": \"id\",\n \"phone\": \"amet laboris nulla pariatur\",\n \"product\": \"in\",\n \"image\": \"adipisicing in aute\",\n \"aux_location\": []\n}"
								},
								{
									"name": "Unexpected error",
									"originalRequest": {
										"method": "GET",
										"header": [],
										"url": {
											"raw": "{{baseUrl}}/api/aux_services/id_number?id_number=<integer>",
											"host": [
												"{{baseUrl}}"
											],
											"path": [
												"api",
												"aux_services",
												"id_number"
											],
											"query": [
												{
													"key": "id_number",
													"value": "<integer>"
												}
											]
										}
									},
									"status": "Internal Server Error",
									"code": 500,
									"_postman_previewlanguage": "json",
									"header": [
										{
											"key": "Content-Type",
											"value": "application/json"
										}
									],
									"cookie": [],
									"body": "{\n \"code\": -50052068,\n \"message\": \"dolore id o\"\n}"
								}
							]
						}
					],
					"protocolProfileBehavior": {},
					"_postman_isSubFolder": true
				}
			],
			"protocolProfileBehavior": {}
		}
	],
	"variable": [
		{
			"id": "40eaf655-6187-4e44-a79c-2fcbab9a4a45",
			"key": "baseUrl",
			"value": "https://www.mymedtro.com",
			"type": "string"
		}
	],
	"protocolProfileBehavior": {}
}